…
```r
subset(poke_wfg, Speed >= 90 | Attack >= 90)
```

```
## # A tibble: 23 x 13
##    Number Name  Type.1 Type.2 Total    HP Attack Defense Sp..Atk Sp..Def Speed
##     <dbl> <chr> <fct>  <fct>  <dbl> <dbl>  <dbl>   <dbl>   <dbl>   <dbl> <dbl>
##  1      6 Char… Fire   Flying   534    78     84      78     109      85   100
##  2     38 Nine… Fire   <NA>     505    73     76      75      81     100   100
##  3     47 Para… Bug    Grass    405    60     95      80      60      80    30
##  4     59 Arca… Fire   <NA>     555    90    110      80     100      80    95
##  5     60 Poli… Water  <NA>     300    40     50      40      40      40    90
##  6     61 Poli… Water  <NA>     385    65     65      65      50      50    90
##  7     62 Poli… Water  Fight…   510    90     95      95      70      90    70
##  8     70 Weep… Grass  Poison   390    65     90      50      85      45    55
##  9     71 Vict… Grass  Poison   490    80    105      65     100      70    70
## 10     73 Tent… Water  Poison   515    80     70      65      80     120   100
## # … with 13 more rows, and 2 more variables: Generation <dbl>, Legendary <chr>
```
…
