…
```r
# answer for solutions

# rowwise method
imdb_bechdel %>%
  filter(year < 1930) %>%
  select(title:year, duration, avg_vote, User_reviews:Critic_reviews, rating) %>%
  rowwise() %>%
  mutate(total_reviews = sum(c_across(User_reviews:Critic_reviews), na.rm = TRUE))
```

```
## # A tibble: 70 x 8
## # Rowwise: 
##    title               year duration avg_vote User_reviews Critic_reviews rating
##    <chr>              <dbl>    <dbl>    <dbl>        <dbl>          <dbl>  <dbl>
##  1 The Story of the …  1906       70      6.1            7              7      1
##  2 Cleopatra           1912      100      5.2           25              3      2
##  3 A Florida Enchant…  1914       63      5.8            6              3      2
##  4 The Birth of a Na…  1915      195      6.3          368             97      2
##  5 Gretchen the Gree…  1916       58      5.7            7              1      3
##  6 Snow White          1916       63      6.2           13              5      3
##  7 The Poor Little R…  1917       65      6.7           16             13      3
##  8 Raffles, the Amat…  1917       70      6.4            3              3      2
##  9 Rebecca of Sunnyb…  1917       78      6.1            9              5      3
## 10 A Romance of the …  1917       91      5.7           12              4      0
## # … with 60 more rows, and 1 more variable: total_reviews <dbl>
```

```r
# rowSums method
imdb_bechdel %>%
  filter(year < 1930) %>%
  select(title:year, duration, avg_vote, User_reviews:Critic_reviews, rating) %>%
  mutate(total_reviews = rowSums(across(User_reviews:Critic_reviews), na.rm = TRUE))
```

```
## # A tibble: 70 x 8
##    title               year duration avg_vote User_reviews Critic_reviews rating
##    <chr>              <dbl>    <dbl>    <dbl>        <dbl>          <dbl>  <dbl>
##  1 The Story of the …  1906       70      6.1            7              7      1
##  2 Cleopatra           1912      100      5.2           25              3      2
##  3 A Florida Enchant…  1914       63      5.8            6              3      2
##  4 The Birth of a Na…  1915      195      6.3          368             97      2
##  5 Gretchen the Gree…  1916       58      5.7            7              1      3
##  6 Snow White          1916       63      6.2           13              5      3
##  7 The Poor Little R…  1917       65      6.7           16             13      3
##  8 Raffles, the Amat…  1917       70      6.4            3              3      2
##  9 Rebecca of Sunnyb…  1917       78      6.1            9              5      3
## 10 A Romance of the …  1917       91      5.7           12              4      0
## # … with 60 more rows, and 1 more variable: total_reviews <dbl>
```
…
