…
```r
# answer for solutions

# rowwise method
imdb_bechdel %>%
  filter(year < 1930) %>%
  select(title:year, duration, avg_vote, reviews_from_users:reviews_from_critics, rating) %>%
  rowwise() %>%
  mutate(total_reviews = sum(c_across(reviews_from_users:reviews_from_critics), na.rm = TRUE))
```

```
## # A tibble: 70 × 8
## # Rowwise: 
##    title        year duration avg_vote reviews_from_use… reviews_from_cr… rating
##    <chr>       <dbl>    <dbl>    <dbl>             <dbl>            <dbl>  <dbl>
##  1 The Story …  1906       70      6.1                 7                7      1
##  2 Cleopatra    1912      100      5.2                25                3      2
##  3 A Florida …  1914       63      5.8                 6                3      2
##  4 The Birth …  1915      195      6.3               368               97      2
##  5 Gretchen t…  1916       58      5.7                 7                1      3
##  6 Snow White   1916       63      6.2                13                5      3
##  7 The Poor L…  1917       65      6.7                16               13      3
##  8 Raffles, t…  1917       70      6.4                 3                3      2
##  9 Rebecca of…  1917       78      6.1                 9                5      3
## 10 A Romance …  1917       91      5.7                12                4      0
## # … with 60 more rows, and 1 more variable: total_reviews <dbl>
```

```r
# rowSums method
imdb_bechdel %>%
  filter(year < 1930) %>%
  select(title:year, duration, avg_vote, reviews_from_users:reviews_from_critics, rating) %>%
  mutate(total_reviews = rowSums(across(reviews_from_users:reviews_from_critics), na.rm = TRUE))
```

```
## # A tibble: 70 × 8
##    title        year duration avg_vote reviews_from_use… reviews_from_cr… rating
##    <chr>       <dbl>    <dbl>    <dbl>             <dbl>            <dbl>  <dbl>
##  1 The Story …  1906       70      6.1                 7                7      1
##  2 Cleopatra    1912      100      5.2                25                3      2
##  3 A Florida …  1914       63      5.8                 6                3      2
##  4 The Birth …  1915      195      6.3               368               97      2
##  5 Gretchen t…  1916       58      5.7                 7                1      3
##  6 Snow White   1916       63      6.2                13                5      3
##  7 The Poor L…  1917       65      6.7                16               13      3
##  8 Raffles, t…  1917       70      6.4                 3                3      2
##  9 Rebecca of…  1917       78      6.1                 9                5      3
## 10 A Romance …  1917       91      5.7                12                4      0
## # … with 60 more rows, and 1 more variable: total_reviews <dbl>
```
…
